# setting LC_ALL to "C"
# --> Including file '/afs/cern.ch/work/c/cattanem/private/cmakeuser/LHCbDev_HEAD/Ex/IOExample/tests/options/CopyReco08toROOTmdst.py'
# <-- End of file '/afs/cern.ch/work/c/cattanem/private/cmakeuser/LHCbDev_HEAD/Ex/IOExample/tests/options/CopyReco08toROOTmdst.py'
# applying configuration of LHCbApp
# /***** User LHCbApp/LHCbApp ************************************************************************
# |-Persistency    = None
# |-DataType       = '2010'  (default: '2012')
# |-DDDBtag        = 'head-20101206'  (default: '')
# |-SkipEvents     = 0
# |-XMLSummary     = None
# |-OutputLevel    = 3
# |-EvtMax         = -1
# |-Simulation     = False  (default: False)
# |-DQFLAGStag     = ''
# |-IgnoreDQFlags  = True
# |-Detectors      = []  (default: [])
# |-LocalDataTypes = []  (default: [])
# |-TimeStamp      = False
# |-CondDBtag      = 'head-20101112'  (default: '')
# |-Monitors       = []  (default: [])
# \----- (End of User LHCbApp/LHCbApp) ---------------------------------------------------------------
# skipping configuration of XMLSummary
# applying configuration of IOTest
# WARNING: Property 'EvtMax' is set in both 'IOTest' and 'ApplicationMgr', using 'IOTest.EvtMax'
# /***** User IOTest/IOTest **************************************************************************
# |-KillDAQ     = False
# |-DataContent = 'MDST'  (default: 'DST')
# |-DataType    = '2011'
# |-LoadAll     = True  (default: False)
# |-EvtMax      = 5  (default: -1)
# |-WithMC      = False
# \----- (End of User IOTest/IOTest) -----------------------------------------------------------------
# applying configuration of DDDBConf
# WARNING: Using default tag tt-20110126 for partition DQFLAGS
# /***** User DDDBConf/DDDBConf **********************************************************************
# |-DataType    = '2010'  (default: '2012')
# |-DbRoot      = 'conddb:/lhcb.xml'
# |-InitialTime = 'Safe'
# |-AutoTags    = False
# |-Simulation  = False  (default: False)
# \----- (End of User DDDBConf/DDDBConf) -------------------------------------------------------------
# skipping configuration of DstConf
# applying configuration of CondDB
# /***** User CondDB/CondDB **************************************************************************
# |-Upgrade                    = False
# |-EnableRunStampCheck        = True
# |-DBSnapshotDirectory        = '/group/online/hlt/conditions'
# |-LatestLocalTagsByDataType  = []  (default: [])
# |-Online                     = False
# |-LogFile                    = ''
# |-SQLiteLocalCopiesDir       = ''
# |-EnableRunChangeHandler     = False
# |-RunChangeHandlerConditions = {'online_%d.xml': ['Conditions/Online/LHCb/Magnet/Set', 'Conditions/Online/Velo/MotionSystem', 'Conditions/Online/LHCb/Lumi/LumiSettings', 'Conditions/Online/LHCb/LHCFillingScheme', 'Conditions/Online/LHCb/RunParameters', 'Conditions/Online/Rich1/R1HltGasParameters', 'Conditions/Online/Rich2/R2HltGasParameters']}
# |                            (default: {'online_%d.xml': ['Conditions/Online/LHCb/Magnet/Set', 'Conditions/Online/Velo/MotionSystem', 'Conditions/Online/LHCb/Lumi/LumiSettings', 'Conditions/Online/LHCb/LHCFillingScheme', 'Conditions/Online/LHCb/RunParameters', 'Conditions/Online/Rich1/R1HltGasParameters', 'Conditions/Online/Rich2/R2HltGasParameters']})
# |-Tags                       = {}  (default: {})
# |-LoadCALIBDB                = 'OFFLINE'
# |-AllLocalTagsByDataType     = []  (default: [])
# |-UseOracle                  = False
# |-RunStampCondition          = ''
# |-PartitionConnectionString  = {}  (default: {})
# |-LocalTags                  = {}  (default: {})
# |-IgnoreHeartBeat            = False
# |-Overrides                  = []  (default: [])
# |-Simulation                 = False  (default: False)
# |-QueryGranularity           = 0
# |-LatestGlobalTagByDataType  = ''
# |-UseDBSnapshot              = False
# |-DisableLFC                 = False
# |-HeartBeatCondition         = '/Conditions/Online/LHCb/Tick'
# |-LatestGlobalTagByDataTypes = []  (default: [])
# |-UseLatestTags              = []  (default: [])
# |-OverwriteSQLiteLocalCopy   = False
# \----- (End of User CondDB/CondDB) -----------------------------------------------------------------
# skipping configuration of DigiConf
# skipping configuration of CaloDstPackConf
# skipping configuration of SimConf
# skipping configuration of CaloDstUnPackConf
ApplicationMgr    SUCCESS
====================================================================================================================================
                                                   Welcome to LHCbDev version HEAD
                                          running on mcat.cern.ch on Fri Oct 23 17:21:50 2015
====================================================================================================================================
ApplicationMgr       INFO Application Manager Configured successfully
DetectorPersist...   INFO Added successfully Conversion service:XmlCnvSvc
DetectorDataSvc   SUCCESS Detector description database: conddb:/lhcb.xml
TESFingerPrint      DEBUG Property update for OutputLevel : new value = 1
TESFingerPrint      DEBUG Property update for OutputLevel : new value = 1
TESFingerPrint    VERBOSE ServiceLocatorHelper::service: found service AlgContextSvc
TESFingerPrint      DEBUG Initialize base class GaudiCommon<Algorithm>
TESFingerPrint      DEBUG could not locate CounterSummarySvc, no counter summary will be made
TESFingerPrint      DEBUG List of ALL properties of TESFingerPrint/TESFingerPrint  #properties = 34
TESFingerPrint      DEBUG Property ['Name': Value] =  'OutputFileName':tes_finger_print.dat
TESFingerPrint      DEBUG Property ['Name': Value] =  'HeuristicsLevel':Medium
TESFingerPrint      DEBUG Property ['Name': Value] =  'RequireObjects':[  ]
TESFingerPrint      DEBUG Property ['Name': Value] =  'VetoObjects':[  ]
TESFingerPrint      DEBUG Property ['Name': Value] =  'StatEntityList':[  ]
TESFingerPrint      DEBUG Property ['Name': Value] =  'CounterList':[ '.*' ]
TESFingerPrint      DEBUG Property ['Name': Value] =  'UseEfficiencyRowFormat':True
TESFingerPrint      DEBUG Property ['Name': Value] =  'EfficiencyRowFormat': |*%|-48.48s|%|50t||%|10d| |%|11.5g| |(%|#9.6g| +- %|-#9.6g|)%%|   -------   |   -------   |
TESFingerPrint      DEBUG Property ['Name': Value] =  'RegularRowFormat': | %|-48.48s|%|50t||%|10d| |%|11.7g| |%|#11.5g| |%|#11.5g| |%|#12.5g| |%|#12.5g| |
TESFingerPrint      DEBUG Property ['Name': Value] =  'StatTableHeader': |    Counter                                      |     #     |    sum     | mean/eff^* | rms/err^*  |     min     |     max     |
TESFingerPrint      DEBUG Property ['Name': Value] =  'GlobalTimeOffset':0.0000000
TESFingerPrint      DEBUG Property ['Name': Value] =  'RootOnTES':
TESFingerPrint      DEBUG Property ['Name': Value] =  'RootInTES':
TESFingerPrint      DEBUG Property ['Name': Value] =  'Context':
TESFingerPrint      DEBUG Property ['Name': Value] =  'TypePrint':True
TESFingerPrint      DEBUG Property ['Name': Value] =  'StatPrint':True
TESFingerPrint      DEBUG Property ['Name': Value] =  'PropertiesPrint':False
TESFingerPrint      DEBUG Property ['Name': Value] =  'ErrorsPrint':True
TESFingerPrint      DEBUG Property ['Name': Value] =  'RegisterForContextService':True
TESFingerPrint      DEBUG Property ['Name': Value] =  'MonitorService':MonitorSvc
TESFingerPrint      DEBUG Property ['Name': Value] =  'AuditStop':False
TESFingerPrint      DEBUG Property ['Name': Value] =  'AuditStart':False
TESFingerPrint      DEBUG Property ['Name': Value] =  'AuditEndRun':False
TESFingerPrint      DEBUG Property ['Name': Value] =  'AuditBeginRun':False
TESFingerPrint      DEBUG Property ['Name': Value] =  'AuditFinalize':False
TESFingerPrint      DEBUG Property ['Name': Value] =  'AuditExecute':False
TESFingerPrint      DEBUG Property ['Name': Value] =  'AuditRestart':False
TESFingerPrint      DEBUG Property ['Name': Value] =  'AuditReinitialize':False
TESFingerPrint      DEBUG Property ['Name': Value] =  'AuditInitialize':False
TESFingerPrint      DEBUG Property ['Name': Value] =  'AuditAlgorithms':False
TESFingerPrint      DEBUG Property ['Name': Value] =  'ErrorCounter':0
TESFingerPrint      DEBUG Property ['Name': Value] =  'ErrorMax':1
TESFingerPrint      DEBUG Property ['Name': Value] =  'Enable':True
TESFingerPrint      DEBUG Property ['Name': Value] =  'OutputLevel':1
TESFingerPrint      DEBUG ==> Initialize
TESFingerPrint    VERBOSE ServiceLocatorHelper::service: found service ToolSvc
EventPersistenc...   INFO Added successfully Conversion service:RootCnvSvc
InputCopyStream      INFO Data source: EventDataSvc output: DATAFILE='PFN:ROOT-Reco08.mdst' SVC='RootCnvSvc' OPT='REC'
FileRecordPersi...   INFO Added successfully Conversion service:FileRecordCnvSvc
FSRInputCopyStream   INFO Data source: FileRecordDataSvc output: DATAFILE='PFN:ROOT-Reco08.mdst' SVC='FileRecordCnvSvc' OPT='REC'
EventSelector        INFO Stream:EventSelector.DataStreamTool_1 Def:DATAFILE='PFN:root://eoslhcb.cern.ch//eos/lhcb/grid/prod/lhcb/swtest/lhcb/data/2010/CHARM.MDST/00008397/0000/00008397_00000939_1.charm.mdst' SVC='Gaudi::RootEvtSelector' OPT='READ'
HistogramPersis...WARNING Histograms saving not required.
ApplicationMgr       INFO Application Manager Initialized successfully
ApplicationMgr       INFO Application Manager Started successfully
TESFingerPrint      DEBUG Property update for OutputLevel : new value = 1
EventSelector     SUCCESS Reading Event record 1. Record number within stream 1: 1
COOLConfSvc          INFO CORAL Connection Retrial Period set to 60s
COOLConfSvc          INFO CORAL Connection Retrial Time-Out set to 900s
ONLINE_2010          INFO Connected to database "sqlite_file:/afs/cern.ch/lhcb/software/DEV/nightlies/DBASE/Det/SQLDDDB/v7r999/db/ONLINE-2010.db/ONLINE"
ONLINE_2010          INFO Using TAG ""
PrintHeader          INFO Run 80845, Event 71425568
StoreExplorerAlg     INFO ========= /Event[0x5468a80@EventDataSvc]:
StoreExplorerAlg     INFO +--> /Event [Address: CLID=0x1 Type=0x2]  DataObject
StoreExplorerAlg     INFO | +--> /DAQ [Address: CLID=0x1 Type=0x2]  DataObject
StoreExplorerAlg     INFO | | +--> /ODIN [Address: CLID=0x3ed Type=0x2]  LHCb::ODIN
StoreExplorerAlg     INFO | +--> /Rec [Address: CLID=0x1 Type=0x2]  DataObject
StoreExplorerAlg     INFO | | +--> /Header [Address: CLID=0x69 Type=0x2]  LHCb::RecHeader
StoreExplorerAlg     INFO | | +--> /Status [Address: CLID=0x1389 Type=0x2]  LHCb::ProcStatus
StoreExplorerAlg     INFO | +--> /Strip [Address: CLID=0x1 Type=0x2]  DataObject
StoreExplorerAlg     INFO | | +--> /Phys [Address: CLID=0x1 Type=0x2]  DataObject
StoreExplorerAlg     INFO | |   +--> /DecReports [Address: CLID=0x1d61 Type=0x2]  LHCb::HltDecReports
StoreExplorerAlg     INFO   +--> /Charm [Address: CLID=0x1 Type=0x2]  DataObject
StoreExplorerAlg     INFO   | +--> /Rec [Address: CLID=0x1 Type=0x2]  DataObject
StoreExplorerAlg     INFO   | | +--> /Header [Address: CLID=0x69 Type=0x2]  LHCb::RecHeader
StoreExplorerAlg     INFO   | | +--> /Vertex [Address: CLID=0x1 Type=0x2]  DataObject
StoreExplorerAlg     INFO   | | | +--> /Primary [Address: CLID=0x6272e Type=0x2]  KeyedContainer<LHCb::RecVertex,C [0x1]
StoreExplorerAlg     INFO   | | | +--> /Weights [Address: CLID=0x6272f Type=0x2]  KeyedContainer<LHCb::WeightsVect [0x1]
StoreExplorerAlg     INFO   | | +--> /ProtoP [Address: CLID=0x1 Type=0x2]  DataObject
StoreExplorerAlg     INFO   | | | +--> /Charged [Address: CLID=0x60323 Type=0x2]  KeyedContainer<LHCb::ProtoPartic [0x3]
StoreExplorerAlg     INFO   | | +--> /Track [Address: CLID=0x1 Type=0x2]  DataObject
StoreExplorerAlg     INFO   | | | +--> /Best [Address: CLID=0x6271a Type=0x2]  KeyedContainer<LHCb::Track,Conta [0x3]
StoreExplorerAlg     INFO   | | +--> /Rich [Address: CLID=0x1 Type=0x2]  DataObject
StoreExplorerAlg     INFO   | | | +--> /PIDs [Address: CLID=0x63072 Type=0x2]  KeyedContainer<LHCb::RichPID,Con [0x3]
StoreExplorerAlg     INFO   | | +--> /Muon [Address: CLID=0x1 Type=0x2]  DataObject
StoreExplorerAlg     INFO   | | | +--> /MuonPID [Address: CLID=0x62b2a Type=0x2]  KeyedContainer<LHCb::MuonPID,Con [0x3]
StoreExplorerAlg     INFO   | | +--> /Calo [Address: CLID=0x1 Type=0x2]  DataObject
StoreExplorerAlg     INFO   | | | +--> /Photons [Address: CLID=0x607d4 Type=0x2]  KeyedContainer<LHCb::CaloHypo,Co [0x1]
StoreExplorerAlg     INFO   | |   +--> /Electrons [Address: CLID=0x607d4 Type=0x2]  KeyedContainer<LHCb::CaloHypo,Co [0x1]
StoreExplorerAlg     INFO   | +--> /DAQ [Address: CLID=0x1 Type=0x2]  DataObject
StoreExplorerAlg     INFO   | | +--> /ODIN [Address: CLID=0x3ed Type=0x2]  LHCb::ODIN
StoreExplorerAlg     INFO   | | +--> /RawEvent [Address: CLID=0x3ea Type=0x2]  LHCb::RawEvent
StoreExplorerAlg     INFO   | +--> /Phys [Address: CLID=0x1 Type=0x2]  DataObject
StoreExplorerAlg     INFO   | | +--> /D02hhPIDLine [Address: CLID=0x1 Type=0x2]  DataObject
StoreExplorerAlg     INFO   | | | +--> /Particles [Address: CLID=0x60321 Type=0x2]  KeyedContainer<LHCb::Particle,Co [0]
StoreExplorerAlg     INFO   | | +--> /D02HHForPromptCharm [Address: CLID=0x1 Type=0x2]  DataObject
StoreExplorerAlg     INFO   | | | +--> /Particles [Address: CLID=0x60321 Type=0x2]  KeyedContainer<LHCb::Particle,Co [0x1]
StoreExplorerAlg     INFO   | | | +--> /decayVertices [Address: CLID=0x60322 Type=0x2]  KeyedContainer<LHCb::Vertex,Cont [0x1]
StoreExplorerAlg     INFO   | | | +--> /Particle2VertexRelations [Address: CLID=0xea9168dc Type=0x2]  LHCb::Relation1D<LHCb::Particle,
StoreExplorerAlg     INFO   | | | +--> /ReFitPvs_Charm_PVs [Address: CLID=0x6272e Type=0x2]  KeyedContainer<LHCb::RecVertex,C [0x1]
StoreExplorerAlg     INFO   | | | +--> /BestPV_Charm_P2PV [Address: CLID=0xea9168dc Type=0x2]  LHCb::Relation1D<LHCb::Particle,
StoreExplorerAlg     INFO   | | +--> /SelBasicMesonsForPromptCharm [Address: CLID=0x1 Type=0x2]  DataObject
StoreExplorerAlg     INFO   | | | +--> /Particles [Address: CLID=0x60321 Type=0x2]  KeyedContainer<LHCb::Particle,Co [0x2]
StoreExplorerAlg     INFO   | | +--> /DstarForPromptCharm [Address: CLID=0x1 Type=0x2]  DataObject
StoreExplorerAlg     INFO   | | | +--> /Particles [Address: CLID=0x60321 Type=0x2]  KeyedContainer<LHCb::Particle,Co [0x1]
StoreExplorerAlg     INFO   | | | +--> /decayVertices [Address: CLID=0x60322 Type=0x2]  KeyedContainer<LHCb::Vertex,Cont [0x1]
StoreExplorerAlg     INFO   | | | +--> /Particle2VertexRelations [Address: CLID=0xea9168dc Type=0x2]  LHCb::Relation1D<LHCb::Particle,
StoreExplorerAlg     INFO   | | | +--> /ReFitPvs_Charm_PVs [Address: CLID=0x6272e Type=0x2]  KeyedContainer<LHCb::RecVertex,C [0x1]
StoreExplorerAlg     INFO   | | | +--> /BestPV_Charm_P2PV [Address: CLID=0xea9168dc Type=0x2]  LHCb::Relation1D<LHCb::Particle,
StoreExplorerAlg     INFO   | | +--> /StdNoPIDsPions [Address: CLID=0x1 Type=0x2]  DataObject
StoreExplorerAlg     INFO   | | | +--> /Particles [Address: CLID=0x60321 Type=0x2]  KeyedContainer<LHCb::Particle,Co [0x1]
StoreExplorerAlg     INFO   | | +--> /PreSelD02HHForPromptCharm [Address: CLID=0x1 Type=0x2]  DataObject
StoreExplorerAlg     INFO   | | | +--> /Particles [Address: CLID=0x60321 Type=0x2]  KeyedContainer<LHCb::Particle,Co [0x1]
StoreExplorerAlg     INFO   | | | +--> /decayVertices [Address: CLID=0x60322 Type=0x2]  KeyedContainer<LHCb::Vertex,Cont [0x1]
StoreExplorerAlg     INFO   | | +--> /DsForPromptCharm [Address: CLID=0x1 Type=0x2]  DataObject
StoreExplorerAlg     INFO   | | | +--> /Particles [Address: CLID=0x60321 Type=0x2]  KeyedContainer<LHCb::Particle,Co [0]
StoreExplorerAlg     INFO   | | | +--> /Particle2VertexRelations [Address: CLID=0xea9168dc Type=0x2]  LHCb::Relation1D<LHCb::Particle,
StoreExplorerAlg     INFO   | | +--> /DForPromptCharm [Address: CLID=0x1 Type=0x2]  DataObject
StoreExplorerAlg     INFO   | | | +--> /Particles [Address: CLID=0x60321 Type=0x2]  KeyedContainer<LHCb::Particle,Co [0]
StoreExplorerAlg     INFO   | | | +--> /Particle2VertexRelations [Address: CLID=0xea9168dc Type=0x2]  LHCb::Relation1D<LHCb::Particle,
StoreExplorerAlg     INFO   | | +--> /D2PPP [Address: CLID=0x1 Type=0x2]  DataObject
StoreExplorerAlg     INFO   | | | +--> /Particles [Address: CLID=0x60321 Type=0x2]  KeyedContainer<LHCb::Particle,Co [0]
StoreExplorerAlg     INFO   | | +--> /D2KKP [Address: CLID=0x1 Type=0x2]  DataObject
StoreExplorerAlg     INFO   | | | +--> /Particles [Address: CLID=0x60321 Type=0x2]  KeyedContainer<LHCb::Particle,Co [0]
StoreExplorerAlg     INFO   | | +--> /D2KKK [Address: CLID=0x1 Type=0x2]  DataObject
StoreExplorerAlg     INFO   | | | +--> /Particles [Address: CLID=0x60321 Type=0x2]  KeyedContainer<LHCb::Particle,Co [0]
StoreExplorerAlg     INFO   | | +--> /D2KPP [Address: CLID=0x1 Type=0x2]  DataObject
StoreExplorerAlg     INFO   | | | +--> /Particles [Address: CLID=0x60321 Type=0x2]  KeyedContainer<LHCb::Particle,Co [0]
StoreExplorerAlg     INFO   | | +--> /D2KPPos [Address: CLID=0x1 Type=0x2]  DataObject
StoreExplorerAlg     INFO   | | | +--> /Particles [Address: CLID=0x60321 Type=0x2]  KeyedContainer<LHCb::Particle,Co [0]
StoreExplorerAlg     INFO   | | +--> /D2hhh_inc [Address: CLID=0x1 Type=0x2]  DataObject
StoreExplorerAlg     INFO   | | | +--> /Particles [Address: CLID=0x60321 Type=0x2]  KeyedContainer<LHCb::Particle,Co [0]
StoreExplorerAlg     INFO   | | | +--> /Particle2VertexRelations [Address: CLID=0xea9168dc Type=0x2]  LHCb::Relation1D<LHCb::Particle,
StoreExplorerAlg     INFO   | | +--> /D2hhLTUnbiasedLine [Address: CLID=0x1 Type=0x2]  DataObject
StoreExplorerAlg     INFO   | | | +--> /Particles [Address: CLID=0x60321 Type=0x2]  KeyedContainer<LHCb::Particle,Co [0]
StoreExplorerAlg     INFO   | |   +--> /Particle2VertexRelations [Address: CLID=0xea9168dc Type=0x2]  LHCb::Relation1D<LHCb::Particle,
StoreExplorerAlg     INFO     +--> /Particle2LHCbIDMap [Address: CLID=0x370 Type=0x2]  DaVinci::Map::Particle2LHCbIDs
TESFingerPrint      DEBUG ==> Execute
EventSelector     SUCCESS Reading Event record 2. Record number within stream 1: 2
PrintHeader          INFO Run 80845, Event 71457874
StoreExplorerAlg     INFO ========= /Event[0x57978d0@EventDataSvc]:
StoreExplorerAlg     INFO +--> /Event [Address: CLID=0x1 Type=0x2]  DataObject
StoreExplorerAlg     INFO | +--> /DAQ [Address: CLID=0x1 Type=0x2]  DataObject
StoreExplorerAlg     INFO | | +--> /ODIN [Address: CLID=0x3ed Type=0x2]  LHCb::ODIN
StoreExplorerAlg     INFO | +--> /Rec [Address: CLID=0x1 Type=0x2]  DataObject
StoreExplorerAlg     INFO | | +--> /Header [Address: CLID=0x69 Type=0x2]  LHCb::RecHeader
StoreExplorerAlg     INFO | | +--> /Status [Address: CLID=0x1389 Type=0x2]  LHCb::ProcStatus
StoreExplorerAlg     INFO | +--> /Strip [Address: CLID=0x1 Type=0x2]  DataObject
StoreExplorerAlg     INFO | | +--> /Phys [Address: CLID=0x1 Type=0x2]  DataObject
StoreExplorerAlg     INFO | |   +--> /DecReports [Address: CLID=0x1d61 Type=0x2]  LHCb::HltDecReports
StoreExplorerAlg     INFO   +--> /Charm [Address: CLID=0x1 Type=0x2]  DataObject
StoreExplorerAlg     INFO   | +--> /Rec [Address: CLID=0x1 Type=0x2]  DataObject
StoreExplorerAlg     INFO   | | +--> /Header [Address: CLID=0x69 Type=0x2]  LHCb::RecHeader
StoreExplorerAlg     INFO   | | +--> /Vertex [Address: CLID=0x1 Type=0x2]  DataObject
StoreExplorerAlg     INFO   | | | +--> /Primary [Address: CLID=0x6272e Type=0x2]  KeyedContainer<LHCb::RecVertex,C [0x1]
StoreExplorerAlg     INFO   | | | +--> /Weights [Address: CLID=0x6272f Type=0x2]  KeyedContainer<LHCb::WeightsVect [0x1]
StoreExplorerAlg     INFO   | | +--> /ProtoP [Address: CLID=0x1 Type=0x2]  DataObject
StoreExplorerAlg     INFO   | | | +--> /Charged [Address: CLID=0x60323 Type=0x2]  KeyedContainer<LHCb::ProtoPartic [0x2]
StoreExplorerAlg     INFO   | | +--> /Track [Address: CLID=0x1 Type=0x2]  DataObject
StoreExplorerAlg     INFO   | | | +--> /Best [Address: CLID=0x6271a Type=0x2]  KeyedContainer<LHCb::Track,Conta [0x2]
StoreExplorerAlg     INFO   | | +--> /Rich [Address: CLID=0x1 Type=0x2]  DataObject
StoreExplorerAlg     INFO   | | | +--> /PIDs [Address: CLID=0x63072 Type=0x2]  KeyedContainer<LHCb::RichPID,Con [0x2]
StoreExplorerAlg     INFO   | | +--> /Muon [Address: CLID=0x1 Type=0x2]  DataObject
StoreExplorerAlg     INFO   | |   +--> /MuonPID [Address: CLID=0x62b2a Type=0x2]  KeyedContainer<LHCb::MuonPID,Con [0x2]
StoreExplorerAlg     INFO   | +--> /DAQ [Address: CLID=0x1 Type=0x2]  DataObject
StoreExplorerAlg     INFO   | | +--> /ODIN [Address: CLID=0x3ed Type=0x2]  LHCb::ODIN
StoreExplorerAlg     INFO   | | +--> /RawEvent [Address: CLID=0x3ea Type=0x2]  LHCb::RawEvent
StoreExplorerAlg     INFO   | +--> /Phys [Address: CLID=0x1 Type=0x2]  DataObject
StoreExplorerAlg     INFO   | | +--> /D02hhPIDLine [Address: CLID=0x1 Type=0x2]  DataObject
StoreExplorerAlg     INFO   | | | +--> /Particles [Address: CLID=0x60321 Type=0x2]  KeyedContainer<LHCb::Particle,Co [0x1]
StoreExplorerAlg     INFO   | | | +--> /decayVertices [Address: CLID=0x60322 Type=0x2]  KeyedContainer<LHCb::Vertex,Cont [0x1]
StoreExplorerAlg     INFO   | | | +--> /Particle2VertexRelations [Address: CLID=0xea9168dc Type=0x2]  LHCb::Relation1D<LHCb::Particle,
StoreExplorerAlg     INFO   | | | +--> /ReFitPvs_Charm_PVs [Address: CLID=0x6272e Type=0x2]  KeyedContainer<LHCb::RecVertex,C [0x1]
StoreExplorerAlg     INFO   | | | +--> /BestPV_Charm_P2PV [Address: CLID=0xea9168dc Type=0x2]  LHCb::Relation1D<LHCb::Particle,
StoreExplorerAlg     INFO   | | +--> /StdNoPIDsKaons [Address: CLID=0x1 Type=0x2]  DataObject
StoreExplorerAlg     INFO   | | | +--> /Particles [Address: CLID=0x60321 Type=0x2]  KeyedContainer<LHCb::Particle,Co [0x2]
StoreExplorerAlg     INFO   | | +--> /D02HHForPromptCharm [Address: CLID=0x1 Type=0x2]  DataObject
StoreExplorerAlg     INFO   | | | +--> /Particles [Address: CLID=0x60321 Type=0x2]  KeyedContainer<LHCb::Particle,Co [0x1]
StoreExplorerAlg     INFO   | | | +--> /decayVertices [Address: CLID=0x60322 Type=0x2]  KeyedContainer<LHCb::Vertex,Cont [0x1]
StoreExplorerAlg     INFO   | | | +--> /Particle2VertexRelations [Address: CLID=0xea9168dc Type=0x2]  LHCb::Relation1D<LHCb::Particle,
StoreExplorerAlg     INFO   | | | +--> /ReFitPvs_Charm_PVs [Address: CLID=0x6272e Type=0x2]  KeyedContainer<LHCb::RecVertex,C [0x1]
StoreExplorerAlg     INFO   | | | +--> /BestPV_Charm_P2PV [Address: CLID=0xea9168dc Type=0x2]  LHCb::Relation1D<LHCb::Particle,
StoreExplorerAlg     INFO   | | +--> /SelBasicMesonsForPromptCharm [Address: CLID=0x1 Type=0x2]  DataObject
StoreExplorerAlg     INFO   | | | +--> /Particles [Address: CLID=0x60321 Type=0x2]  KeyedContainer<LHCb::Particle,Co [0x2]
StoreExplorerAlg     INFO   | | +--> /DstarForPromptCharm [Address: CLID=0x1 Type=0x2]  DataObject
StoreExplorerAlg     INFO   | | | +--> /Particles [Address: CLID=0x60321 Type=0x2]  KeyedContainer<LHCb::Particle,Co [0]
StoreExplorerAlg     INFO   | | | +--> /Particle2VertexRelations [Address: CLID=0xea9168dc Type=0x2]  LHCb::Relation1D<LHCb::Particle,
StoreExplorerAlg     INFO   | | +--> /DsForPromptCharm [Address: CLID=0x1 Type=0x2]  DataObject
StoreExplorerAlg     INFO   | | | +--> /Particles [Address: CLID=0x60321 Type=0x2]  KeyedContainer<LHCb::Particle,Co [0]
StoreExplorerAlg     INFO   | | | +--> /Particle2VertexRelations [Address: CLID=0xea9168dc Type=0x2]  LHCb::Relation1D<LHCb::Particle,
StoreExplorerAlg     INFO   | | +--> /DForPromptCharm [Address: CLID=0x1 Type=0x2]  DataObject
StoreExplorerAlg     INFO   | | | +--> /Particles [Address: CLID=0x60321 Type=0x2]  KeyedContainer<LHCb::Particle,Co [0]
StoreExplorerAlg     INFO   | | | +--> /Particle2VertexRelations [Address: CLID=0xea9168dc Type=0x2]  LHCb::Relation1D<LHCb::Particle,
StoreExplorerAlg     INFO   | | +--> /LambdaCForPromptCharm [Address: CLID=0x1 Type=0x2]  DataObject
StoreExplorerAlg     INFO   | | | +--> /Particles [Address: CLID=0x60321 Type=0x2]  KeyedContainer<LHCb::Particle,Co [0]
StoreExplorerAlg     INFO   | | | +--> /Particle2VertexRelations [Address: CLID=0xea9168dc Type=0x2]  LHCb::Relation1D<LHCb::Particle,
StoreExplorerAlg     INFO   | | +--> /D2PPP [Address: CLID=0x1 Type=0x2]  DataObject
StoreExplorerAlg     INFO   | | | +--> /Particles [Address: CLID=0x60321 Type=0x2]  KeyedContainer<LHCb::Particle,Co [0]
StoreExplorerAlg     INFO   | | +--> /D2KKP [Address: CLID=0x1 Type=0x2]  DataObject
StoreExplorerAlg     INFO   | | | +--> /Particles [Address: CLID=0x60321 Type=0x2]  KeyedContainer<LHCb::Particle,Co [0]
StoreExplorerAlg     INFO   | | +--> /D2KKK [Address: CLID=0x1 Type=0x2]  DataObject
StoreExplorerAlg     INFO   | | | +--> /Particles [Address: CLID=0x60321 Type=0x2]  KeyedContainer<LHCb::Particle,Co [0]
StoreExplorerAlg     INFO   | | +--> /D2KPP [Address: CLID=0x1 Type=0x2]  DataObject
StoreExplorerAlg     INFO   | | | +--> /Particles [Address: CLID=0x60321 Type=0x2]  KeyedContainer<LHCb::Particle,Co [0]
StoreExplorerAlg     INFO   | | +--> /D2hhLTUnbiasedLine [Address: CLID=0x1 Type=0x2]  DataObject
StoreExplorerAlg     INFO   | | | +--> /Particles [Address: CLID=0x60321 Type=0x2]  KeyedContainer<LHCb::Particle,Co [0x1]
StoreExplorerAlg     INFO   | | | +--> /decayVertices [Address: CLID=0x60322 Type=0x2]  KeyedContainer<LHCb::Vertex,Cont [0x1]
StoreExplorerAlg     INFO   | | | +--> /Particle2VertexRelations [Address: CLID=0xea9168dc Type=0x2]  LHCb::Relation1D<LHCb::Particle,
StoreExplorerAlg     INFO   | | | +--> /ReFitPvs_Charm_PVs [Address: CLID=0x6272e Type=0x2]  KeyedContainer<LHCb::RecVertex,C [0x1]
StoreExplorerAlg     INFO   | | | +--> /BestPV_Charm_P2PV [Address: CLID=0xea9168dc Type=0x2]  LHCb::Relation1D<LHCb::Particle,
StoreExplorerAlg     INFO   | | +--> /StdNoPIDsPions [Address: CLID=0x1 Type=0x2]  DataObject
StoreExplorerAlg     INFO   | |   +--> /Particles [Address: CLID=0x60321 Type=0x2]  KeyedContainer<LHCb::Particle,Co [0x1]
StoreExplorerAlg     INFO     +--> /Particle2LHCbIDMap [Address: CLID=0x370 Type=0x2]  DaVinci::Map::Particle2LHCbIDs
TESFingerPrint      DEBUG ==> Execute
EventSelector     SUCCESS Reading Event record 3. Record number within stream 1: 3
PrintHeader          INFO Run 80845, Event 71441314
StoreExplorerAlg     INFO ========= /Event[0x65a94c0@EventDataSvc]:
StoreExplorerAlg     INFO +--> /Event [Address: CLID=0x1 Type=0x2]  DataObject
StoreExplorerAlg     INFO | +--> /DAQ [Address: CLID=0x1 Type=0x2]  DataObject
StoreExplorerAlg     INFO | | +--> /ODIN [Address: CLID=0x3ed Type=0x2]  LHCb::ODIN
StoreExplorerAlg     INFO | +--> /Rec [Address: CLID=0x1 Type=0x2]  DataObject
StoreExplorerAlg     INFO | | +--> /Header [Address: CLID=0x69 Type=0x2]  LHCb::RecHeader
StoreExplorerAlg     INFO | | +--> /Status [Address: CLID=0x1389 Type=0x2]  LHCb::ProcStatus
StoreExplorerAlg     INFO | +--> /Strip [Address: CLID=0x1 Type=0x2]  DataObject
StoreExplorerAlg     INFO | | +--> /Phys [Address: CLID=0x1 Type=0x2]  DataObject
StoreExplorerAlg     INFO | |   +--> /DecReports [Address: CLID=0x1d61 Type=0x2]  LHCb::HltDecReports
StoreExplorerAlg     INFO   +--> /Charm [Address: CLID=0x1 Type=0x2]  DataObject
StoreExplorerAlg     INFO   | +--> /Rec [Address: CLID=0x1 Type=0x2]  DataObject
StoreExplorerAlg     INFO   | | +--> /Header [Address: CLID=0x69 Type=0x2]  LHCb::RecHeader
StoreExplorerAlg     INFO   | | +--> /Vertex [Address: CLID=0x1 Type=0x2]  DataObject
StoreExplorerAlg     INFO   | | | +--> /Primary [Address: CLID=0x6272e Type=0x2]  KeyedContainer<LHCb::RecVertex,C [0x3]
StoreExplorerAlg     INFO   | | | +--> /Weights [Address: CLID=0x6272f Type=0x2]  KeyedContainer<LHCb::WeightsVect [0x3]
StoreExplorerAlg     INFO   | | +--> /ProtoP [Address: CLID=0x1 Type=0x2]  DataObject
StoreExplorerAlg     INFO   | | | +--> /Charged [Address: CLID=0x60323 Type=0x2]  KeyedContainer<LHCb::ProtoPartic [0x7]
StoreExplorerAlg     INFO   | | +--> /Track [Address: CLID=0x1 Type=0x2]  DataObject
StoreExplorerAlg     INFO   | | | +--> /Best [Address: CLID=0x6271a Type=0x2]  KeyedContainer<LHCb::Track,Conta [0x7]
StoreExplorerAlg     INFO   | | +--> /Rich [Address: CLID=0x1 Type=0x2]  DataObject
StoreExplorerAlg     INFO   | | | +--> /PIDs [Address: CLID=0x63072 Type=0x2]  KeyedContainer<LHCb::RichPID,Con [0x7]
StoreExplorerAlg     INFO   | | +--> /Muon [Address: CLID=0x1 Type=0x2]  DataObject
StoreExplorerAlg     INFO   | | | +--> /MuonPID [Address: CLID=0x62b2a Type=0x2]  KeyedContainer<LHCb::MuonPID,Con [0x7]
StoreExplorerAlg     INFO   | | +--> /Calo [Address: CLID=0x1 Type=0x2]  DataObject
StoreExplorerAlg     INFO   | | | +--> /Electrons [Address: CLID=0x607d4 Type=0x2]  KeyedContainer<LHCb::CaloHypo,Co [0x4]
StoreExplorerAlg     INFO   | |   +--> /Photons [Address: CLID=0x607d4 Type=0x2]  KeyedContainer<LHCb::CaloHypo,Co [0x6]
StoreExplorerAlg     INFO   | +--> /DAQ [Address: CLID=0x1 Type=0x2]  DataObject
StoreExplorerAlg     INFO   | | +--> /ODIN [Address: CLID=0x3ed Type=0x2]  LHCb::ODIN
StoreExplorerAlg     INFO   | | +--> /RawEvent [Address: CLID=0x3ea Type=0x2]  LHCb::RawEvent
StoreExplorerAlg     INFO   | +--> /Phys [Address: CLID=0x1 Type=0x2]  DataObject
StoreExplorerAlg     INFO   | | +--> /D02hhPIDLine [Address: CLID=0x1 Type=0x2]  DataObject
StoreExplorerAlg     INFO   | | | +--> /Particles [Address: CLID=0x60321 Type=0x2]  KeyedContainer<LHCb::Particle,Co [0]
StoreExplorerAlg     INFO   | | +--> /D2PPP [Address: CLID=0x1 Type=0x2]  DataObject
StoreExplorerAlg     INFO   | | | +--> /Particles [Address: CLID=0x60321 Type=0x2]  KeyedContainer<LHCb::Particle,Co [0x4]
StoreExplorerAlg     INFO   | | | +--> /decayVertices [Address: CLID=0x60322 Type=0x2]  KeyedContainer<LHCb::Vertex,Cont [0x4]
StoreExplorerAlg     INFO   | | | +--> /Particle2VertexRelations [Address: CLID=0xea9168dc Type=0x2]  LHCb::Relation1D<LHCb::Particle,
StoreExplorerAlg     INFO   | | | +--> /ReFitPvs_Charm_PVs [Address: CLID=0x6272e Type=0x2]  KeyedContainer<LHCb::RecVertex,C [0x4]
StoreExplorerAlg     INFO   | | | +--> /BestPV_Charm_P2PV [Address: CLID=0xea9168dc Type=0x2]  LHCb::Relation1D<LHCb::Particle,
StoreExplorerAlg     INFO   | | +--> /StdNoPIDsPions [Address: CLID=0x1 Type=0x2]  DataObject
StoreExplorerAlg     INFO   | | | +--> /Particles [Address: CLID=0x60321 Type=0x2]  KeyedContainer<LHCb::Particle,Co [0x6]
StoreExplorerAlg     INFO   | | +--> /D2KKP [Address: CLID=0x1 Type=0x2]  DataObject
StoreExplorerAlg     INFO   | | | +--> /Particles [Address: CLID=0x60321 Type=0x2]  KeyedContainer<LHCb::Particle,Co [0]
StoreExplorerAlg     INFO   | | +--> /D2KKK [Address: CLID=0x1 Type=0x2]  DataObject
StoreExplorerAlg     INFO   | | | +--> /Particles [Address: CLID=0x60321 Type=0x2]  KeyedContainer<LHCb::Particle,Co [0]
StoreExplorerAlg     INFO   | | +--> /D2KPP [Address: CLID=0x1 Type=0x2]  DataObject
StoreExplorerAlg     INFO   | | | +--> /Particles [Address: CLID=0x60321 Type=0x2]  KeyedContainer<LHCb::Particle,Co [0]
StoreExplorerAlg     INFO   | | +--> /D2KPPos [Address: CLID=0x1 Type=0x2]  DataObject
StoreExplorerAlg     INFO   | | | +--> /Particles [Address: CLID=0x60321 Type=0x2]  KeyedContainer<LHCb::Particle,Co [0x1]
StoreExplorerAlg     INFO   | | | +--> /decayVertices [Address: CLID=0x60322 Type=0x2]  KeyedContainer<LHCb::Vertex,Cont [0x1]
StoreExplorerAlg     INFO   | | | +--> /Particle2VertexRelations [Address: CLID=0xea9168dc Type=0x2]  LHCb::Relation1D<LHCb::Particle,
StoreExplorerAlg     INFO   | | | +--> /ReFitPvs_Charm_PVs [Address: CLID=0x6272e Type=0x2]  KeyedContainer<LHCb::RecVertex,C [0x1]
StoreExplorerAlg     INFO   | | | +--> /BestPV_Charm_P2PV [Address: CLID=0xea9168dc Type=0x2]  LHCb::Relation1D<LHCb::Particle,
StoreExplorerAlg     INFO   | | +--> /StdNoPIDsKaons [Address: CLID=0x1 Type=0x2]  DataObject
StoreExplorerAlg     INFO   | | | +--> /Particles [Address: CLID=0x60321 Type=0x2]  KeyedContainer<LHCb::Particle,Co [0x1]
StoreExplorerAlg     INFO   | | +--> /D2hhLTUnbiasedLine [Address: CLID=0x1 Type=0x2]  DataObject
StoreExplorerAlg     INFO   | |   +--> /Particles [Address: CLID=0x60321 Type=0x2]  KeyedContainer<LHCb::Particle,Co [0]
StoreExplorerAlg     INFO     +--> /Particle2LHCbIDMap [Address: CLID=0x370 Type=0x2]  DaVinci::Map::Particle2LHCbIDs
TESFingerPrint      DEBUG ==> Execute
EventSelector     SUCCESS Reading Event record 4. Record number within stream 1: 4
PrintHeader          INFO Run 80845, Event 71496385
StoreExplorerAlg     INFO ========= /Event[0x687c4d0@EventDataSvc]:
StoreExplorerAlg     INFO +--> /Event [Address: CLID=0x1 Type=0x2]  DataObject
StoreExplorerAlg     INFO | +--> /DAQ [Address: CLID=0x1 Type=0x2]  DataObject
StoreExplorerAlg     INFO | | +--> /ODIN [Address: CLID=0x3ed Type=0x2]  LHCb::ODIN
StoreExplorerAlg     INFO | +--> /Rec [Address: CLID=0x1 Type=0x2]  DataObject
StoreExplorerAlg     INFO | | +--> /Header [Address: CLID=0x69 Type=0x2]  LHCb::RecHeader
StoreExplorerAlg     INFO | | +--> /Status [Address: CLID=0x1389 Type=0x2]  LHCb::ProcStatus
StoreExplorerAlg     INFO | +--> /Strip [Address: CLID=0x1 Type=0x2]  DataObject
StoreExplorerAlg     INFO | | +--> /Phys [Address: CLID=0x1 Type=0x2]  DataObject
StoreExplorerAlg     INFO | |   +--> /DecReports [Address: CLID=0x1d61 Type=0x2]  LHCb::HltDecReports
StoreExplorerAlg     INFO   +--> /Charm [Address: CLID=0x1 Type=0x2]  DataObject
StoreExplorerAlg     INFO   | +--> /Rec [Address: CLID=0x1 Type=0x2]  DataObject
StoreExplorerAlg     INFO   | | +--> /Header [Address: CLID=0x69 Type=0x2]  LHCb::RecHeader
StoreExplorerAlg     INFO   | | +--> /Vertex [Address: CLID=0x1 Type=0x2]  DataObject
StoreExplorerAlg     INFO   | | | +--> /Primary [Address: CLID=0x6272e Type=0x2]  KeyedContainer<LHCb::RecVertex,C [0x3]
StoreExplorerAlg     INFO   | | | +--> /Weights [Address: CLID=0x6272f Type=0x2]  KeyedContainer<LHCb::WeightsVect [0x3]
StoreExplorerAlg     INFO   | | +--> /ProtoP [Address: CLID=0x1 Type=0x2]  DataObject
StoreExplorerAlg     INFO   | | | +--> /Charged [Address: CLID=0x60323 Type=0x2]  KeyedContainer<LHCb::ProtoPartic [0x2]
StoreExplorerAlg     INFO   | | +--> /Track [Address: CLID=0x1 Type=0x2]  DataObject
StoreExplorerAlg     INFO   | | | +--> /Best [Address: CLID=0x6271a Type=0x2]  KeyedContainer<LHCb::Track,Conta [0x2]
StoreExplorerAlg     INFO   | | +--> /Rich [Address: CLID=0x1 Type=0x2]  DataObject
StoreExplorerAlg     INFO   | | | +--> /PIDs [Address: CLID=0x63072 Type=0x2]  KeyedContainer<LHCb::RichPID,Con [0x2]
StoreExplorerAlg     INFO   | | +--> /Muon [Address: CLID=0x1 Type=0x2]  DataObject
StoreExplorerAlg     INFO   | | | +--> /MuonPID [Address: CLID=0x62b2a Type=0x2]  KeyedContainer<LHCb::MuonPID,Con [0x2]
StoreExplorerAlg     INFO   | | +--> /Calo [Address: CLID=0x1 Type=0x2]  DataObject
StoreExplorerAlg     INFO   | | | +--> /Electrons [Address: CLID=0x607d4 Type=0x2]  KeyedContainer<LHCb::CaloHypo,Co [0x2]
StoreExplorerAlg     INFO   | |   +--> /Photons [Address: CLID=0x607d4 Type=0x2]  KeyedContainer<LHCb::CaloHypo,Co [0x1]
StoreExplorerAlg     INFO   | +--> /DAQ [Address: CLID=0x1 Type=0x2]  DataObject
StoreExplorerAlg     INFO   | | +--> /ODIN [Address: CLID=0x3ed Type=0x2]  LHCb::ODIN
StoreExplorerAlg     INFO   | | +--> /RawEvent [Address: CLID=0x3ea Type=0x2]  LHCb::RawEvent
StoreExplorerAlg     INFO   | +--> /Phys [Address: CLID=0x1 Type=0x2]  DataObject
StoreExplorerAlg     INFO   | | +--> /D02hhPIDLine [Address: CLID=0x1 Type=0x2]  DataObject
StoreExplorerAlg     INFO   | | | +--> /Particles [Address: CLID=0x60321 Type=0x2]  KeyedContainer<LHCb::Particle,Co [0x1]
StoreExplorerAlg     INFO   | | | +--> /decayVertices [Address: CLID=0x60322 Type=0x2]  KeyedContainer<LHCb::Vertex,Cont [0x1]
StoreExplorerAlg     INFO   | | | +--> /Particle2VertexRelations [Address: CLID=0xea9168dc Type=0x2]  LHCb::Relation1D<LHCb::Particle,
StoreExplorerAlg     INFO   | | | +--> /ReFitPvs_Charm_PVs [Address: CLID=0x6272e Type=0x2]  KeyedContainer<LHCb::RecVertex,C [0x1]
StoreExplorerAlg     INFO   | | | +--> /BestPV_Charm_P2PV [Address: CLID=0xea9168dc Type=0x2]  LHCb::Relation1D<LHCb::Particle,
StoreExplorerAlg     INFO   | | +--> /StdNoPIDsKaons [Address: CLID=0x1 Type=0x2]  DataObject
StoreExplorerAlg     INFO   | | | +--> /Particles [Address: CLID=0x60321 Type=0x2]  KeyedContainer<LHCb::Particle,Co [0x2]
StoreExplorerAlg     INFO   | | +--> /DsForPromptCharm [Address: CLID=0x1 Type=0x2]  DataObject
StoreExplorerAlg     INFO   | | | +--> /Particles [Address: CLID=0x60321 Type=0x2]  KeyedContainer<LHCb::Particle,Co [0]
StoreExplorerAlg     INFO   | | +--> /DForPromptCharm [Address: CLID=0x1 Type=0x2]  DataObject
StoreExplorerAlg     INFO   | | | +--> /Particles [Address: CLID=0x60321 Type=0x2]  KeyedContainer<LHCb::Particle,Co [0]
StoreExplorerAlg     INFO   | | +--> /D2KKK [Address: CLID=0x1 Type=0x2]  DataObject
StoreExplorerAlg     INFO   | | | +--> /Particles [Address: CLID=0x60321 Type=0x2]  KeyedContainer<LHCb::Particle,Co [0]
StoreExplorerAlg     INFO   | | +--> /D2hhLTUnbiasedLine [Address: CLID=0x1 Type=0x2]  DataObject
StoreExplorerAlg     INFO   | |   +--> /Particles [Address: CLID=0x60321 Type=0x2]  KeyedContainer<LHCb::Particle,Co [0]
StoreExplorerAlg     INFO     +--> /Particle2LHCbIDMap [Address: CLID=0x370 Type=0x2]  DaVinci::Map::Particle2LHCbIDs
TESFingerPrint      DEBUG ==> Execute
EventSelector     SUCCESS Reading Event record 5. Record number within stream 1: 5
PrintHeader          INFO Run 80845, Event 71490736
StoreExplorerAlg     INFO ========= /Event[0x548b110@EventDataSvc]:
StoreExplorerAlg     INFO +--> /Event [Address: CLID=0x1 Type=0x2]  DataObject
StoreExplorerAlg     INFO | +--> /DAQ [Address: CLID=0x1 Type=0x2]  DataObject
StoreExplorerAlg     INFO | | +--> /ODIN [Address: CLID=0x3ed Type=0x2]  LHCb::ODIN
StoreExplorerAlg     INFO | +--> /Rec [Address: CLID=0x1 Type=0x2]  DataObject
StoreExplorerAlg     INFO | | +--> /Header [Address: CLID=0x69 Type=0x2]  LHCb::RecHeader
StoreExplorerAlg     INFO | | +--> /Status [Address: CLID=0x1389 Type=0x2]  LHCb::ProcStatus
StoreExplorerAlg     INFO | +--> /Strip [Address: CLID=0x1 Type=0x2]  DataObject
StoreExplorerAlg     INFO | | +--> /Phys [Address: CLID=0x1 Type=0x2]  DataObject
StoreExplorerAlg     INFO | |   +--> /DecReports [Address: CLID=0x1d61 Type=0x2]  LHCb::HltDecReports
StoreExplorerAlg     INFO   +--> /Charm [Address: CLID=0x1 Type=0x2]  DataObject
StoreExplorerAlg     INFO   | +--> /Rec [Address: CLID=0x1 Type=0x2]  DataObject
StoreExplorerAlg     INFO   | | +--> /Header [Address: CLID=0x69 Type=0x2]  LHCb::RecHeader
StoreExplorerAlg     INFO   | | +--> /Vertex [Address: CLID=0x1 Type=0x2]  DataObject
StoreExplorerAlg     INFO   | | | +--> /Primary [Address: CLID=0x6272e Type=0x2]  KeyedContainer<LHCb::RecVertex,C [0x2]
StoreExplorerAlg     INFO   | | | +--> /Weights [Address: CLID=0x6272f Type=0x2]  KeyedContainer<LHCb::WeightsVect [0x2]
StoreExplorerAlg     INFO   | | +--> /ProtoP [Address: CLID=0x1 Type=0x2]  DataObject
StoreExplorerAlg     INFO   | | | +--> /Charged [Address: CLID=0x60323 Type=0x2]  KeyedContainer<LHCb::ProtoPartic [0x8]
StoreExplorerAlg     INFO   | | +--> /Track [Address: CLID=0x1 Type=0x2]  DataObject
StoreExplorerAlg     INFO   | | | +--> /Best [Address: CLID=0x6271a Type=0x2]  KeyedContainer<LHCb::Track,Conta [0x8]
StoreExplorerAlg     INFO   | | +--> /Rich [Address: CLID=0x1 Type=0x2]  DataObject
StoreExplorerAlg     INFO   | | | +--> /PIDs [Address: CLID=0x63072 Type=0x2]  KeyedContainer<LHCb::RichPID,Con [0x8]
StoreExplorerAlg     INFO   | | +--> /Muon [Address: CLID=0x1 Type=0x2]  DataObject
StoreExplorerAlg     INFO   | | | +--> /MuonPID [Address: CLID=0x62b2a Type=0x2]  KeyedContainer<LHCb::MuonPID,Con [0x8]
StoreExplorerAlg     INFO   | | +--> /Calo [Address: CLID=0x1 Type=0x2]  DataObject
StoreExplorerAlg     INFO   | | | +--> /Electrons [Address: CLID=0x607d4 Type=0x2]  KeyedContainer<LHCb::CaloHypo,Co [0x5]
StoreExplorerAlg     INFO   | |   +--> /Photons [Address: CLID=0x607d4 Type=0x2]  KeyedContainer<LHCb::CaloHypo,Co [0x7]
StoreExplorerAlg     INFO   | +--> /DAQ [Address: CLID=0x1 Type=0x2]  DataObject
StoreExplorerAlg     INFO   | | +--> /ODIN [Address: CLID=0x3ed Type=0x2]  LHCb::ODIN
StoreExplorerAlg     INFO   | | +--> /RawEvent [Address: CLID=0x3ea Type=0x2]  LHCb::RawEvent
StoreExplorerAlg     INFO   | +--> /Phys [Address: CLID=0x1 Type=0x2]  DataObject
StoreExplorerAlg     INFO   | | +--> /D02hhPIDLine [Address: CLID=0x1 Type=0x2]  DataObject
StoreExplorerAlg     INFO   | | | +--> /Particles [Address: CLID=0x60321 Type=0x2]  KeyedContainer<LHCb::Particle,Co [0]
StoreExplorerAlg     INFO   | | +--> /DsForPromptCharm [Address: CLID=0x1 Type=0x2]  DataObject
StoreExplorerAlg     INFO   | | | +--> /Particles [Address: CLID=0x60321 Type=0x2]  KeyedContainer<LHCb::Particle,Co [0]
StoreExplorerAlg     INFO   | | +--> /DForPromptCharm [Address: CLID=0x1 Type=0x2]  DataObject
StoreExplorerAlg     INFO   | | | +--> /Particles [Address: CLID=0x60321 Type=0x2]  KeyedContainer<LHCb::Particle,Co [0]
StoreExplorerAlg     INFO   | | +--> /LambdaCForPromptCharm [Address: CLID=0x1 Type=0x2]  DataObject
StoreExplorerAlg     INFO   | | | +--> /Particles [Address: CLID=0x60321 Type=0x2]  KeyedContainer<LHCb::Particle,Co [0]
StoreExplorerAlg     INFO   | | +--> /D2PPP [Address: CLID=0x1 Type=0x2]  DataObject
StoreExplorerAlg     INFO   | | | +--> /Particles [Address: CLID=0x60321 Type=0x2]  KeyedContainer<LHCb::Particle,Co [0x3]
StoreExplorerAlg     INFO   | | | +--> /decayVertices [Address: CLID=0x60322 Type=0x2]  KeyedContainer<LHCb::Vertex,Cont [0x3]
StoreExplorerAlg     INFO   | | | +--> /Particle2VertexRelations [Address: CLID=0xea9168dc Type=0x2]  LHCb::Relation1D<LHCb::Particle,
StoreExplorerAlg     INFO   | | | +--> /ReFitPvs_Charm_PVs [Address: CLID=0x6272e Type=0x2]  KeyedContainer<LHCb::RecVertex,C [0x3]
StoreExplorerAlg     INFO   | | | +--> /BestPV_Charm_P2PV [Address: CLID=0xea9168dc Type=0x2]  LHCb::Relation1D<LHCb::Particle,
StoreExplorerAlg     INFO   | | +--> /StdNoPIDsPions [Address: CLID=0x1 Type=0x2]  DataObject
StoreExplorerAlg     INFO   | | | +--> /Particles [Address: CLID=0x60321 Type=0x2]  KeyedContainer<LHCb::Particle,Co [0x8]
StoreExplorerAlg     INFO   | | +--> /D2KKP [Address: CLID=0x1 Type=0x2]  DataObject
StoreExplorerAlg     INFO   | | | +--> /Particles [Address: CLID=0x60321 Type=0x2]  KeyedContainer<LHCb::Particle,Co [0]
StoreExplorerAlg     INFO   | | +--> /D2KKK [Address: CLID=0x1 Type=0x2]  DataObject
StoreExplorerAlg     INFO   | | | +--> /Particles [Address: CLID=0x60321 Type=0x2]  KeyedContainer<LHCb::Particle,Co [0]
StoreExplorerAlg     INFO   | | +--> /D2KPP [Address: CLID=0x1 Type=0x2]  DataObject
StoreExplorerAlg     INFO   | | | +--> /Particles [Address: CLID=0x60321 Type=0x2]  KeyedContainer<LHCb::Particle,Co [0]
StoreExplorerAlg     INFO   | | +--> /D2hhLTUnbiasedLine [Address: CLID=0x1 Type=0x2]  DataObject
StoreExplorerAlg     INFO   | |   +--> /Particles [Address: CLID=0x60321 Type=0x2]  KeyedContainer<LHCb::Particle,Co [0]
StoreExplorerAlg     INFO     +--> /Particle2LHCbIDMap [Address: CLID=0x370 Type=0x2]  DaVinci::Map::Particle2LHCbIDs
TESFingerPrint      DEBUG ==> Execute
TESFingerPrint      DEBUG Property update for OutputLevel : new value = 1
ApplicationMgr       INFO Application Manager Stopped successfully
PrintHeader          INFO Filtered 5 events
TESFingerPrint      DEBUG ==> Finalize
TESFingerPrint    VERBOSE ==> TES DataObject statistics: {/Event: 5, /Event/Charm: 5, /Event/Charm/DAQ: 5, /Event/Charm/DAQ/ODIN: 5, /Event/Charm/DAQ/RawEvent: 5, /Event/Charm/Particle2LHCbIDMap: 5, /Event/Charm/Phys: 5, /Event/Charm/Phys/D02HHForPromptCharm: 2, /Event/Charm/Phys/D02HHForPromptCharm/BestPV_Charm_P2PV: 2, /Event/Charm/Phys/D02HHForPromptCharm/Particle2VertexRelations: 2, /Event/Charm/Phys/D02HHForPromptCharm/Particles: 2, /Event/Charm/Phys/D02HHForPromptCharm/ReFitPvs_Charm_PVs: 2, /Event/Charm/Phys/D02HHForPromptCharm/decayVertices: 2, /Event/Charm/Phys/D02hhPIDLine: 5, /Event/Charm/Phys/D02hhPIDLine/BestPV_Charm_P2PV: 2, /Event/Charm/Phys/D02hhPIDLine/Particle2VertexRelations: 2, /Event/Charm/Phys/D02hhPIDLine/Particles: 5, /Event/Charm/Phys/D02hhPIDLine/ReFitPvs_Charm_PVs: 2, /Event/Charm/Phys/D02hhPIDLine/decayVertices: 2, /Event/Charm/Phys/D2KKK: 5, /Event/Charm/Phys/D2KKK/Particles: 5, /Event/Charm/Phys/D2KKP: 4, /Event/Charm/Phys/D2KKP/Particles: 4, /Event/Charm/Phys/D2KPP: 4, /Event/Charm/Phys/D2KPP/Particles: 4, /Event/Charm/Phys/D2KPPos: 2, /Event/Charm/Phys/D2KPPos/BestPV_Charm_P2PV: 1, /Event/Charm/Phys/D2KPPos/Particle2VertexRelations: 1, /Event/Charm/Phys/D2KPPos/Particles: 2, /Event/Charm/Phys/D2KPPos/ReFitPvs_Charm_PVs: 1, /Event/Charm/Phys/D2KPPos/decayVertices: 1, /Event/Charm/Phys/D2PPP: 4, /Event/Charm/Phys/D2PPP/BestPV_Charm_P2PV: 2, /Event/Charm/Phys/D2PPP/Particle2VertexRelations: 2, /Event/Charm/Phys/D2PPP/Particles: 4, /Event/Charm/Phys/D2PPP/ReFitPvs_Charm_PVs: 2, /Event/Charm/Phys/D2PPP/decayVertices: 2, /Event/Charm/Phys/D2hhLTUnbiasedLine: 5, /Event/Charm/Phys/D2hhLTUnbiasedLine/BestPV_Charm_P2PV: 1, /Event/Charm/Phys/D2hhLTUnbiasedLine/Particle2VertexRelations: 2, /Event/Charm/Phys/D2hhLTUnbiasedLine/Particles: 5, /Event/Charm/Phys/D2hhLTUnbiasedLine/ReFitPvs_Charm_PVs: 1, /Event/Charm/Phys/D2hhLTUnbiasedLine/decayVertices: 1, /Event/Charm/Phys/D2hhh_inc: 1, /Event/Charm/Phys/D2hhh_inc/Particle2VertexRelations: 1, /Event/Charm/Phys/D2hhh_inc/Particles: 1, /Event/Charm/Phys/DForPromptCharm: 4, /Event/Charm/Phys/DForPromptCharm/Particle2VertexRelations: 2, /Event/Charm/Phys/DForPromptCharm/Particles: 4, /Event/Charm/Phys/DsForPromptCharm: 4, /Event/Charm/Phys/DsForPromptCharm/Particle2VertexRelations: 2, /Event/Charm/Phys/DsForPromptCharm/Particles: 4, /Event/Charm/Phys/DstarForPromptCharm: 2, /Event/Charm/Phys/DstarForPromptCharm/BestPV_Charm_P2PV: 1, /Event/Charm/Phys/DstarForPromptCharm/Particle2VertexRelations: 2, /Event/Charm/Phys/DstarForPromptCharm/Particles: 2, /Event/Charm/Phys/DstarForPromptCharm/ReFitPvs_Charm_PVs: 1, /Event/Charm/Phys/DstarForPromptCharm/decayVertices: 1, /Event/Charm/Phys/LambdaCForPromptCharm: 2, /Event/Charm/Phys/LambdaCForPromptCharm/Particle2VertexRelations: 1, /Event/Charm/Phys/LambdaCForPromptCharm/Particles: 2, /Event/Charm/Phys/PreSelD02HHForPromptCharm: 1, /Event/Charm/Phys/PreSelD02HHForPromptCharm/Particles: 1, /Event/Charm/Phys/PreSelD02HHForPromptCharm/decayVertices: 1, /Event/Charm/Phys/SelBasicMesonsForPromptCharm: 2, /Event/Charm/Phys/SelBasicMesonsForPromptCharm/Particles: 2, /Event/Charm/Phys/StdNoPIDsKaons: 3, /Event/Charm/Phys/StdNoPIDsKaons/Particles: 3, /Event/Charm/Phys/StdNoPIDsPions: 4, /Event/Charm/Phys/StdNoPIDsPions/Particles: 4, /Event/Charm/Rec: 5, /Event/Charm/Rec/Calo: 4, /Event/Charm/Rec/Calo/Electrons: 4, /Event/Charm/Rec/Calo/Photons: 4, /Event/Charm/Rec/Header: 5, /Event/Charm/Rec/Muon: 5, /Event/Charm/Rec/Muon/MuonPID: 5, /Event/Charm/Rec/ProtoP: 5, /Event/Charm/Rec/ProtoP/Charged: 5, /Event/Charm/Rec/Rich: 5, /Event/Charm/Rec/Rich/PIDs: 5, /Event/Charm/Rec/Track: 5, /Event/Charm/Rec/Track/Best: 5, /Event/Charm/Rec/Vertex: 5, /Event/Charm/Rec/Vertex/Primary: 5, /Event/Charm/Rec/Vertex/Weights: 5, /Event/DAQ: 5, /Event/DAQ/ODIN: 5, /Event/Rec: 5, /Event/Rec/Header: 5, /Event/Rec/Status: 5, /Event/Strip: 5, /Event/Strip/Phys: 5, /Event/Strip/Phys/DecReports: 5}
TESFingerPrint    VERBOSE ==> TES Container sizes: {/Event/Charm/Phys/D02HHForPromptCharm/Particles: {1: 2}, /Event/Charm/Phys/D02HHForPromptCharm/ReFitPvs_Charm_PVs: {1: 2}, /Event/Charm/Phys/D02HHForPromptCharm/decayVertices: {1: 2}, /Event/Charm/Phys/D02hhPIDLine/Particles: {0: 3, 1: 2}, /Event/Charm/Phys/D02hhPIDLine/ReFitPvs_Charm_PVs: {1: 2}, /Event/Charm/Phys/D02hhPIDLine/decayVertices: {1: 2}, /Event/Charm/Phys/D2KKK/Particles: {0: 5}, /Event/Charm/Phys/D2KKP/Particles: {0: 4}, /Event/Charm/Phys/D2KPP/Particles: {0: 4}, /Event/Charm/Phys/D2KPPos/Particles: {0: 1, 1: 1}, /Event/Charm/Phys/D2KPPos/ReFitPvs_Charm_PVs: {1: 1}, /Event/Charm/Phys/D2KPPos/decayVertices: {1: 1}, /Event/Charm/Phys/D2PPP/Particles: {0: 2, 3: 1, 4: 1}, /Event/Charm/Phys/D2PPP/ReFitPvs_Charm_PVs: {3: 1, 4: 1}, /Event/Charm/Phys/D2PPP/decayVertices: {3: 1, 4: 1}, /Event/Charm/Phys/D2hhLTUnbiasedLine/Particles: {0: 4, 1: 1}, /Event/Charm/Phys/D2hhLTUnbiasedLine/ReFitPvs_Charm_PVs: {1: 1}, /Event/Charm/Phys/D2hhLTUnbiasedLine/decayVertices: {1: 1}, /Event/Charm/Phys/D2hhh_inc/Particles: {0: 1}, /Event/Charm/Phys/DForPromptCharm/Particles: {0: 4}, /Event/Charm/Phys/DsForPromptCharm/Particles: {0: 4}, /Event/Charm/Phys/DstarForPromptCharm/Particles: {0: 1, 1: 1}, /Event/Charm/Phys/DstarForPromptCharm/ReFitPvs_Charm_PVs: {1: 1}, /Event/Charm/Phys/DstarForPromptCharm/decayVertices: {1: 1}, /Event/Charm/Phys/LambdaCForPromptCharm/Particles: {0: 2}, /Event/Charm/Phys/PreSelD02HHForPromptCharm/Particles: {1: 1}, /Event/Charm/Phys/PreSelD02HHForPromptCharm/decayVertices: {1: 1}, /Event/Charm/Phys/SelBasicMesonsForPromptCharm/Particles: {2: 2}, /Event/Charm/Phys/StdNoPIDsKaons/Particles: {1: 1, 2: 2}, /Event/Charm/Phys/StdNoPIDsPions/Particles: {1: 2, 6: 1, 8: 1}, /Event/Charm/Rec/Calo/Electrons: {1: 1, 2: 1, 4: 1, 5: 1}, /Event/Charm/Rec/Calo/Photons: {1: 2, 6: 1, 7: 1}, /Event/Charm/Rec/Muon/MuonPID: {2: 2, 3: 1, 7: 1, 8: 1}, /Event/Charm/Rec/ProtoP/Charged: {2: 2, 3: 1, 7: 1, 8: 1}, /Event/Charm/Rec/Rich/PIDs: {2: 2, 3: 1, 7: 1, 8: 1}, /Event/Charm/Rec/Track/Best: {2: 2, 3: 1, 7: 1, 8: 1}, /Event/Charm/Rec/Vertex/Primary: {1: 2, 2: 1, 3: 2}, /Event/Charm/Rec/Vertex/Weights: {1: 2, 2: 1, 3: 2}}
TESFingerPrint      DEBUG Finalize base class GaudiAlgorithm
TESFingerPrint      DEBUG Tools to release :
TESFingerPrint      DEBUG Services to release :
InputCopyStream      INFO Events output: 5
FSRInputCopyStream   INFO Set up File Summary Record
FSRInputCopyStream   INFO Events output: 1
EventLoopMgr         INFO Histograms converted successfully according to request.
DataOnDemandSvc      INFO Handled "DataFault" incidents: 0/0/0(Alg/Node/Total).
ToolSvc              INFO Removing all tools created by ToolSvc
RootCnvSvc           INFO Disconnected data IO:1EA9F83B-8A79-E511-9818-02163E008F18 [ROOT-Reco08.mdst]
RootCnvSvc           INFO Disconnected data IO:F44A5139-A045-E011-95EE-003048CF632E [root://eoslhcb.cern.ch//eos/lhcb/grid/prod/lhcb/swtest/lhcb/data/2010/CHARM.MDST/00008397/0000/00008397_00000939_1.charm.mdst]
ApplicationMgr       INFO Application Manager Finalized successfully
ApplicationMgr       INFO Application Manager Terminated successfully
